2.2 Building a plot | Data Visualization in R
…
The previous code used a gets arrow1212 gets arrow. The function
<-, which allows you to save the output from running the code on the right-hand
side of the arrow to an object with the name on the left of the arrow. This is a
funny kind of function called an infix function, which goes between two
function arguments instead of putting the arguments inside parentheses. If you
want to look up the helpfile for an infix function, wrap it in backticks:
?`<-`. to save the data you read in to an R object called daily_fatalities.
Now, anytime you want to use this data, you can reference it with the name
daily_fatalities instead of needing to read it in again. For example, you
can print out the start of the data by calling the object name by itself:

daily_fatalities

## # A tibble: 28 x 4
##    date        week weekday   fatals
##    <date>     <dbl> <chr>      <dbl>
##  1 2017-08-27    35 Sunday         4
##  2 2017-08-28    35 Monday         5
##  3 2017-08-29    35 Tuesday        6
##  4 2017-08-30    35 Wednesday      6
##  5 2017-08-31    35 Thursday       6
##  6 2017-09-01    35 Friday         9
##  7 2017-09-02    35 Saturday       8
##  8 2017-09-03    36 Sunday        15
##  9 2017-09-04    36 Monday         7
## 10 2017-09-05    36 Tuesday        8
## # … with 18 more rows
…
