3.1 Geographical data in a tidy format | Data Visualization in R
…
If you followed all the set-up instructions in the “Prerequisites”, you should have downloaded a
dataset called “fl_accidents.csv” and saved it in the “data” subdirectory of the R Project directory
for the examples. You can use readr to read it in. If you print out the start of it, you’ll see
that it’s got observations (rows) of fatal motor vehicle accidents. These accidents all occurred in
Florida within a week of Hurricane Irma’s landfall on September 10, 2017. The columns give
the county code (fips), date (date), location (latitude and longitud), and the number of
fatalities (fatals).

library("readr")
fl_accidents <- read_csv("data/fl_accidents.csv")
fl_accidents

## # A tibble: 37 x 5
##     fips date       latitude longitud fatals
##    <dbl> <date>        <dbl>    <dbl>  <dbl>
##  1 12031 2017-09-08     30.2    -81.5      1
##  2 12095 2017-09-07     28.5    -81.4      1
##  3 12097 2017-09-08     28.3    -81.3      1
##  4 12095 2017-09-07     28.6    -81.2      1
##  5 12031 2017-09-08     30.2    -81.8      1
##  6 12033 2017-09-07     30.6    -87.4      2
##  7 12023 2017-09-10     30.1    -82.7      1
##  8 12075 2017-09-08     29.6    -82.9      1
##  9 12045 2017-09-09     30.1    -85.3      2
## 10 12031 2017-09-12     30.4    -81.8      1
## # … with 27 more rows
…
Now, when you print out fl_accidents, you’ll see some extra information at the top of the print
out, including the objects bounding box (bbox) and projection (epsg, proj4string)
(which we currently haven’t set).

fl_accidents

## Simple feature collection with 37 features and 3 fields
## geometry type:  POINT
## dimension:      XY
## bbox:           xmin: -87.3797 ymin: 25.6876 xmax: -80.32332 ymax: 30.65894
## epsg (SRID):    4326
## proj4string:    +proj=longlat +datum=WGS84 +no_defs
## # A tibble: 37 x 4
##     fips date       fatals             geometry
##    <dbl> <date>      <dbl>          <POINT [°]>
##  1 12031 2017-09-08      1   (-81.5407 30.2474)
##  2 12095 2017-09-07      1 (-81.41927 28.51796)
##  3 12097 2017-09-08      1 (-81.34221 28.26149)
##  4 12095 2017-09-07      1 (-81.18188 28.57327)
##  5 12031 2017-09-08      1 (-81.84294 30.22846)
##  6 12033 2017-09-07      2  (-87.3797 30.56341)
##  7 12023 2017-09-10      1 (-82.71024 30.13608)
##  8 12075 2017-09-08      1 (-82.87318 29.56196)
##  9 12045 2017-09-09      2 (-85.25815 30.06198)
## 10 12031 2017-09-12      1 (-81.76086 30.37913)
## # … with 27 more rows
…
