6.3 Subsetting | Data Visualization in R
…
6.3 Subsetting

For the rest of the section, we’ll look at cleaning up data from the Federal Accident
Reporting System, the source of the example data we’ve used in other sections.
If you completed the set-up in the “Prerequisites”, you should be able to load this
data using:

library("readr")
accidents <- read_csv("data/accident.csv")

To print out some information about this data, call the object’s name:

accidents

## # A tibble: 34,247 x 52
##    STATE ST_CASE VE_TOTAL VE_FORMS PVH_INVL  PEDS PERNOTMVIT PERMVIT
##    <dbl>   <dbl>    <dbl>    <dbl>    <dbl> <dbl>      <dbl>   <dbl>
##  1     1   10001        1        1        0     0          0       1
##  2     1   10002        1        1        0     0          0       1
##  3     1   10003        3        3        0     0          0       3
##  4     1   10004        1        1        0     0          0       1
##  5     1   10005        1        1        0     0          0       2
##  6     1   10006        2        2        0     0          0       4
##  7     1   10007        2        2        0     0          0       2
##  8     1   10008        1        1        0     0          0       1
##  9     1   10009        1        1        0     0          0       1
## 10     1   10010        1        1        0     1          1       1
## # … with 34,237 more rows, and 44 more variables: PERSONS <dbl>,
## #   COUNTY <dbl>, CITY <dbl>, DAY <dbl>, MONTH <dbl>, YEAR <dbl>,
## #   DAY_WEEK <dbl>, HOUR <dbl>, MINUTE <dbl>, NHS <dbl>, RUR_URB <dbl>,
## #   FUNC_SYS <dbl>, RD_OWNER <dbl>, ROUTE <dbl>, TWAY_ID <chr>,
## #   TWAY_ID2 <chr>, MILEPT <dbl>, LATITUDE <dbl>, LONGITUD <dbl>,
## #   SP_JUR <dbl>, HARM_EV <dbl>, MAN_COLL <dbl>, RELJCT1 <dbl>,
## #   RELJCT2 <dbl>, TYP_INT <dbl>, WRK_ZONE <dbl>, REL_ROAD <dbl>,
## #   LGT_COND <dbl>, WEATHER1 <dbl>, WEATHER2 <dbl>, WEATHER <dbl>,
## #   SCH_BUS <dbl>, RAIL <chr>, NOT_HOUR <dbl>, NOT_MIN <dbl>,
…
