Chapter 6 Tidy | Data Visualization in R
…
For the rest of the section, we’ll look at cleaning up data from the Federal Accident
Reporting System, the source of the example data we’ve used in other sections.
If you completed the set-up in the “Prerequisites”, you should be able to load this
data using:

library("readr")
fl_accidents <- read_csv("data/accident.csv")

As a reminder, to print out some information about this data, call the object’s name:

fl_accidents

## # A tibble: 34,247 x 52
##    STATE ST_CASE VE_TOTAL VE_FORMS PVH_INVL  PEDS PERNOTMVIT PERMVIT
##    <dbl>   <dbl>    <dbl>    <dbl>    <dbl> <dbl>      <dbl>   <dbl>
##  1     1   10001        1        1        0     0          0       1
##  2     1   10002        1        1        0     0          0       1
##  3     1   10003        3        3        0     0          0       3
##  4     1   10004        1        1        0     0          0       1
##  5     1   10005        1        1        0     0          0       2
##  6     1   10006        2        2        0     0          0       4
##  7     1   10007        2        2        0     0          0       2
##  8     1   10008        1        1        0     0          0       1
##  9     1   10009        1        1        0     0          0       1
## 10     1   10010        1        1        0     1          1       1
## # … with 34,237 more rows, and 44 more variables: PERSONS <dbl>,
## #   COUNTY <dbl>, CITY <dbl>, DAY <dbl>, MONTH <dbl>, YEAR <dbl>,
## #   DAY_WEEK <dbl>, HOUR <dbl>, MINUTE <dbl>, NHS <dbl>, RUR_URB <dbl>,
## #   FUNC_SYS <dbl>, RD_OWNER <dbl>, ROUTE <dbl>, TWAY_ID <chr>,
## #   TWAY_ID2 <chr>, MILEPT <dbl>, LATITUDE <dbl>, LONGITUD <dbl>,
## #   SP_JUR <dbl>, HARM_EV <dbl>, MAN_COLL <dbl>, RELJCT1 <dbl>,
## #   RELJCT2 <dbl>, TYP_INT <dbl>, WRK_ZONE <dbl>, REL_ROAD <dbl>,
## #   LGT_COND <dbl>, WEATHER1 <dbl>, WEATHER2 <dbl>, WEATHER <dbl>,
## #   SCH_BUS <dbl>, RAIL <chr>, NOT_HOUR <dbl>, NOT_MIN <dbl>,
…
library(stringr)
library(lubridate)

fl_accidents %>% 
  rename_all(.funs = str_to_lower) %>% 
  select(state, county, day, month, year, latitude, longitud, fatals) %>% 
  filter(state == 12) %>% 
  mutate(county = str_pad(county, width = 3, pad = "0")) %>% 
  unite(col = fips, c(state, county), sep = "") %>% 
  unite(col = date, c(month, day, year), sep = "-") %>% 
  mutate(date = mdy(date)) %>% 
  filter(date >= mdy("9-7-2017") & date <= mdy("9-13-2017"))

## # A tibble: 37 x 5
##    fips  date       latitude longitud fatals
##    <chr> <date>        <dbl>    <dbl>  <dbl>
##  1 12031 2017-09-08     30.2    -81.5      1
##  2 12095 2017-09-07     28.5    -81.4      1
##  3 12097 2017-09-08     28.3    -81.3      1
##  4 12095 2017-09-07     28.6    -81.2      1
##  5 12031 2017-09-08     30.2    -81.8      1
##  6 12033 2017-09-07     30.6    -87.4      2
##  7 12023 2017-09-10     30.1    -82.7      1
##  8 12075 2017-09-08     29.6    -82.9      1
##  9 12045 2017-09-09     30.1    -85.3      2
## 10 12031 2017-09-12     30.4    -81.8      1
## # … with 27 more rows
…
